fifo_bench.vcd
$date
    Sun Nov 15 02:14:12 2015
$end
$version
    MyHDL 0.9.0
$end
$timescale
    1ns
$end

$scope module fifo_bench $end
$var reg 8 ! din $end
$var reg 1 " hit $end
$var reg 16 # addr $end
$var reg 1 $ clk $end
$var reg 16 % valid $end
$var reg 1 & w $end
$var reg 8 ' dout $end
$var reg 1 ( r $end
$scope module fifo_inst $end
$var reg 1 & we $end
$var reg 1 " hit $end
$var reg 16 # addr $end
$var reg 1 $ clk $end
$var reg 8 ! din $end
$var reg 1 ( re $end
$var reg 16 % valid $end
$var reg 8 ' dout $end
$upscope $end
$upscope $end

$enddefinitions $end
$dumpvars
b00000000 !
0"
b0000000000000000 #
0$
b0000000000000000 %
0&
b00000000 '
0(
$end
#10
1$
b1100010111000110 #
1(
#11
#20
0$
#30
1$
b0110110010011010 #
#40
0$
#50
1$
b1000111100100111 #
0(
#51
#60
0$
#70
1$
b1011111111101111 #
1(
1&
#80
0$
#90
1$
b0110000000111100 #
#91
#100
0$
#110
1$
b1001010100110011 #
0&
#120
0$
#130
1$
b1000101001000100 #
0(
1&
b00100100 !
#131
#140
0$
#150
1$
b1000101001000100 %
b0001011010101100 #
1(
0&
b00000000 !
#160
0$
#170
1$
b1000101001000100 #
#171
#180
0$
#190
1$
0(
1&
b10101101 !
1"
b00100100 '
#200
0$
#210
1$
1(
0&
b00000000 !
#211
#220
0$
#230
1$
0(
b10101101 '
#240
0$
#250
1$
0"
b00000000 '
#251
#260
0$
#270
1$
1&
b01101110 !
#280
0$
#290
1$
1"
1(
0&
b00000000 !
#291
#300
0$
#310
1$
0(
1&
b11010010 !
b01101110 '
#320
0$
#330
1$
0&
b00000000 !
#331
#340
0$
#350
1$
0"
b00000000 '
#360
0$
#370
1$
1(
#371
#380
0$
#390
1$
1&
1"
b11010010 '
#400
0$
#410
1$
0"
b00000000 '
0(
b11000010 !
#411
#420
0$
#430
1$
0&
b00000000 !
1"
#440
0$
#450
1$
0"
1(
#451
#460
0$
#470
1$
1&
1"
b11000010 '
#480
0$
#490
1$
0"
b00000000 '
#491
#500
0$
#510
1$
0&
#520
0$
#530
1$
1"
b11000010 '
1&
#531
#540
0$
#550
1$
0&
0"
b00000000 '
#560
0$
#570
1$
1"
b11000010 '
0(
#571
#580
0$
#590
1$
0"
b00000000 '
#600
0$
#610
1$
1(
1&
#611
#620
0$
#630
1$
#640
0$
#650
1$
0(
0&
#651
#660
0$
#670
1$
1&
b01111101 !
#680
0$
#690
1$
1"
1(
b00000000 !
#691
#700
0$
#710
1$
0&
0"
#720
0$
#730
1$
1"
b01111101 '
#731
#740
0$
#750
1$
1&
#760
0$
#770
1$
0"
b00000000 '
0(
0&
#771
#780
0$
#790
1$
1&
b00111110 !
#800
0$
#810
1$
1"
b01010000 !
#811
#820
0$
#830
1$
1(
b00000000 !
#840
0$
#850
1$
0"
#851
#860
0$
#870
1$
0(
b00001110 !
#880
0$
#890
1$
1"
1(
b00000000 !
#891
#900
0$
#910
1$
0&
0"
#920
0$
#930
1$
1"
b00001110 '
0(
#931
#940
0$
#950
1$
0"
b00000000 '
#960
0$
#970
1$
1(
1&
#971
#980
0$
#990
1$
0&
#1000
0$
#1010
1$
1"
b00001110 '
1&
#1011
#1020
0$
#1030
1$
0(
b10100001 !
0"
b00000000 '
#1040
0$
#1050
1$
1"
1(
b00000000 !
#1051
#1060
0$
#1070
1$
0"
#1080
0$
#1090
1$
#1091
#1100
0$
#1110
1$
0(
b00000111 !
#1120
0$
#1130
1$
1"
b00000001 !
#1131
#1140
0$
#1150
1$
1(
b00000000 !
#1160
0$
#1170
1$
0"
0(
0&
#1171
#1180
0$
#1190
1$
#1200
0$
#1210
1$
1(
#1211
#1220
0$
#1230
1$
1"
b00000001 '
#1240
0$
#1250
1$
#1251
#1260
0$
#1270
1$
0(
1&
b00110000 !
#1280
0$
#1290
1$
1(
b00000000 !
#1291
#1300
0$
#1310
1$
0"
b00000000 '
#1320
0$
#1330
1$
0&
#1331
#1340
0$
#1350
1$
0(
1&
b11100000 !
1"
b00110000 '
#1360
0$
#1370
1$
0&
b00000000 !
#1371
#1380
0$
#1390
1$
1&
b00010100 !
0"
b00000000 '
#1400
0$
#1410
1$
1"
1(
0&
b00000000 !
#1411
#1420
0$
#1430
1$
0(
b00010100 '
#1440
0$
#1450
1$
0"
b00000000 '
1(
1&
#1451
#1460
0$
#1470
1$
0(
b00111001 !
#1480
0$
#1490
1$
1"
b11101101 !
#1491
#1500
0$
#1510
1$
1(
b00000000 !
#1520
0$
#1530
1$
0"
0(
0&
#1531
#1540
0$
#1550
1$
1&
b11110100 !
#1560
0$
#1570
1$
1"
1(
b00000000 !
#1571
#1580
0$
#1590
1$
0(
b10010010 !
0"
#1600
0$
#1610
1$
1"
b00100111 !
#1611
#1620
0$
#1630
1$
0&
b00000000 !
#1640
0$
#1650
1$
0"
#1651
#1660
0$
#1670
1$
#1680
0$
#1690
1$
#1691
#1700
0$
#1710
1$
#1720
0$
#1730
1$
1(
1&
#1731
#1740
0$
#1750
1$
0(
b00110011 !
#1760
0$
#1770
1$
1"
1(
0&
b00000000 !
#1771
#1780
0$
#1790
1$
1&
b00110011 '
#1800
0$
#1810
1$
0"
b00000000 '
0&
#1811
#1820
0$
#1830
1$
1"
b00110011 '
#1840
0$
#1850
1$
#1851
#1860
0$
#1870
1$
0(
1&
b11111110 !
#1880
0$
#1890
1$
0&
b00000000 !
#1891
#1900
0$
#1910
1$
1(
0"
b00000000 '
#1920
0$
#1930
1$
1"
b11111110 '
1&
#1931
#1940
0$
#1950
1$
0"
b00000000 '
#1960
0$
#1970
1$
0&
#1971
#1980
0$
#1990
1$
0(
1&
b10111110 !
1"
b11111110 '
