fifo_timing.vcd
$date
    Wed Nov 11 14:05:52 2015
$end
$version
    MyHDL 0.9.0
$end
$timescale
    1ns
$end

$scope module testbench $end
$var reg 8 ! din $end
$var reg 1 " hit $end
$var reg 16 # addr $end
$var reg 1 $ clk $end
$var reg 1 % r $end
$var reg 1 & w $end
$var reg 8 ' dout $end
$scope module fifo_inst $end
$var reg 1 & we $end
$var reg 1 " hit $end
$var reg 16 # addr $end
$var reg 1 $ clk $end
$var reg 8 ! din $end
$var reg 1 % re $end
$var reg 20 ( cache_line $end
$var reg 8 ' dout $end
$var reg 20 ( cache_set(0) $end
$var reg 20 ( cache_set(1) $end
$var reg 20 ( cache_set(2) $end
$var reg 20 ( cache_set(3) $end
$var reg 20 ( cache_set(4) $end
$var reg 20 ( cache_set(5) $end
$var reg 20 ( cache_set(6) $end
$var reg 20 ( cache_set(7) $end
$var reg 20 ( cache_set(8) $end
$var reg 20 ( cache_set(9) $end
$var reg 20 ( cache_set(10) $end
$var reg 20 ( cache_set(11) $end
$var reg 20 ( cache_set(12) $end
$var reg 20 ( cache_set(13) $end
$var reg 20 ( cache_set(14) $end
$var reg 20 ( cache_set(15) $end
$upscope $end
$upscope $end

$enddefinitions $end
$dumpvars
b00000000 !
0"
b0000000000000000 #
0$
0%
0&
b00000000 '
b00000000000000000000 (
$end
#10
1$
b1011100110110101 #
1%
#11
#20
0$
#30
1$
b1010111101101110 #
0%
#40
0$
#50
1$
b0010010001010101 #
1%
1&
b11100000 !
#51
#60
0$
#70
1$
b0000000101000110 #
0%
0&
b00000000 !
#80
0$
#90
1$
b0010101010011010 #
#91
#100
0$
#110
1$
b0010001000000101 #
#120
0$
#130
1$
b1001110110110010 #
1%
1&
b01110111 !
#131
#140
0$
#150
1$
b1010001000011100 #
0%
b00011111 !
#160
0$
#170
1$
b10111101110000011111 (
b1101011111000100 #
1%
b11001100 !
#171
#180
0$
#190
1$
b0001111000110001 #
0&
b00000000 !
#200
0$
#210
1$
b0010101000000001 #
1&
b00111011 !
#211
#220
0$
#230
1$
b1101010001110110 #
0&
b00000000 !
#240
0$
#250
1$
b0101110001101000 #
0%
#251
#260
0$
#270
1$
b1100000010010110 #
1&
b01011010 !
#280
0$
#290
1$
b00010111110001011010 (
b1111100001010100 #
1%
0&
b00000000 !
#291
#300
0$
#310
1$
b0001011010001001 #
0%
#320
0$
#330
1$
b1001100110100110 #
#331
#340
0$
#350
1$
b0010110111100001 #
1%
#360
0$
#370
1$
b1011111011100011 #
1&
b11110010 !
#371
#380
0$
#390
1$
b1011000010001000 #
0%
b01101010 !
#400
0$
#410
1$
b10001100111001101010 (
b1100101010011110 #
b11111000 !
#411
#420
0$
#430
1$
b1101101010111111 #
b10111000 !
b00011111110011111000 (
#440
0$
#450
1$
b10001110110010111000 (
b1011101011001100 #
1%
0&
b00000000 !
#451
#460
0$
#470
1$
b0110110111100001 #
0%
1&
b00001001 !
#480
0$
#490
1$
b00101110100000001001 (
b1001101100101110 #
1%
b01011010 !
#491
#500
0$
#510
1$
b1110110110101000 #
0%
0&
b00000000 !
#520
0$
#530
1$
b1011111010000100 #
1%
1&
b11000110 !
#531
#540
0$
#550
1$
b1100000100100001 #
0&
b00000000 !
#560
0$
#570
1$
b0010010010110111 #
1&
b11010110 !
#571
#580
0$
#590
1$
b1011010010000110 #
0%
0&
b00000000 !
#600
0$
#610
1$
b1110000001101000 #
#611
#620
0$
#630
1$
b1110100110100111 #
1&
b11000100 !
#640
0$
#650
1$
b10010110010011000100 (
b0111100110001000 #
1%
b10011100 !
#651
#660
0$
#670
1$
b1110101001110100 #
b10001011 !
#680
0$
#690
1$
b0001101001101101 #
0%
0&
b00000000 !
#691
#700
0$
#710
1$
b0101110000001010 #
#720
0$
#730
1$
b1101010000110011 #
#731
#740
0$
#750
1$
b1010010001001011 #
1&
b11101011 !
#760
0$
#770
1$
b00111110001011101011 (
b0011011100011001 #
b10111010 !
#771
#780
0$
#790
1$
b0101101000010001 #
1%
0&
b00000000 !
b10000000111010111010 (
#800
0$
#810
1$
b0101100111010000 #
1&
b00001100 !
#811
#820
0$
#830
1$
b1101000111101101 #
0%
#840
0$
#850
1$
b00000011000000001100 (
b1011000100010111 #
b01100011 !
#851
#860
0$
#870
1$
b1110001011111010 #
1%
0&
b00000000 !
b10100010001001100011 (
#880
0$
#890
1$
b1101111000000110 #
0%
#891
#900
0$
#910
1$
b0011010101001100 #
1%
1&
b01100000 !
#920
0$
#930
1$
b1010000001001001 #
b00011000 !
#931
#940
0$
#950
1$
b1010101101010101 #
0%
0&
b00000000 !
#960
0$
#970
1$
b1101001011001010 #
1&
b01010011 !
#971
#980
0$
#990
1$
b1110110101101001 #
1%
b00100111 !
b00100100011001010011 (
#1000
0$
#1010
1$
b0101110100010011 #
b10010001 !
#1011
#1020
0$
#1030
1$
b1111010010100001 #
b00111111 !
#1040
0$
#1050
1$
b0101111100101100 #
0%
0&
b00000000 !
#1051
#1060
0$
#1070
1$
b1110001100101010 #
1&
b01011001 !
#1080
0$
#1090
1$
b10000101111001011001 (
b1111101010101111 #
b01010000 !
#1091
#1100
0$
#1110
1$
b1110001101100100 #
b11000000 !
b00011010111001010000 (
#1120
0$
#1130
1$
b10111000110011000000 (
b1010001111111000 #
1%
b01001010 !
#1131
#1140
0$
#1150
1$
b1111011011010010 #
0&
b00000000 !
#1160
0$
#1170
1$
b0100000011111111 #
1&
b11011110 !
#1171
#1180
0$
#1190
1$
b0000010101001000 #
b11000010 !
#1200
0$
#1210
1$
b0111110000000101 #
0%
0&
b00000000 !
#1211
#1220
0$
#1230
1$
b1110111100001110 #
1%
#1240
0$
#1250
1$
b1100011011011001 #
0%
#1251
#1260
0$
#1270
1$
b0101110011100000 #
1&
b01110110 !
#1280
0$
#1290
1$
b00000011000001110110 (
b0100000100001110 #
1%
0&
b00000000 !
#1291
#1300
0$
#1310
1$
b1000111011000001 #
1&
b11011010 !
#1320
0$
#1330
1$
b0000011100110001 #
0%
0&
b00000000 !
#1331
#1340
0$
#1350
1$
b0010000010111010 #
#1360
0$
#1370
1$
b1010010000100011 #
1%
#1371
#1380
0$
#1390
1$
b0100001110000010 #
#1400
0$
#1410
1$
b0100011101001100 #
1&
b00100111 !
#1411
#1420
0$
#1430
1$
b1101011110110010 #
b11000100 !
#1440
0$
#1450
1$
b0111011011111000 #
0%
0&
b00000000 !
#1451
#1460
0$
#1470
1$
b1111110101000000 #
#1480
0$
#1490
1$
b0010110010110110 #
1%
#1491
#1500
0$
#1510
1$
b1000111011101101 #
0%
1&
b11000110 !
#1520
0$
#1530
1$
b10001101111011000110 (
b1000011100011100 #
1%
b11011000 !
#1531
#1540
0$
#1550
1$
b1110100001110010 #
0%
b00111100 !
#1560
0$
#1570
1$
b00110101111000111100 (
b0010110011110011 #
0&
b00000000 !
#1571
#1580
0$
#1590
1$
b0000000001110001 #
1%
#1600
0$
#1610
1$
b1101010110110000 #
#1611
#1620
0$
#1630
1$
b1010011101111100 #
0%
#1640
0$
#1650
1$
b1111100110110111 #
#1651
#1660
0$
#1670
1$
b1110000011011000 #
#1680
0$
#1690
1$
b0101101110101100 #
#1691
#1700
0$
#1710
1$
b0110010000011100 #
1%
#1720
0$
#1730
1$
b1001101100001100 #
0%
#1731
#1740
0$
#1750
1$
b0000010111011011 #
1%
#1760
0$
#1770
1$
b1010110000111010 #
0%
1&
b10101010 !
#1771
#1780
0$
#1790
1$
b0011100110001001 #
1%
0&
b00000000 !
b10101001110010101010 (
#1800
0$
#1810
1$
b1000010101101010 #
#1811
#1820
0$
#1830
1$
b0101100000111001 #
0%
1&
b10101111 !
#1840
0$
#1850
1$
b00110101101010101111 (
b1101010001000011 #
1%
0&
b00000000 !
#1851
#1860
0$
#1870
1$
b1101100000111101 #
#1880
0$
#1890
1$
b0110101011110000 #
1&
b10110110 !
#1891
#1900
0$
#1910
1$
b1100000100011100 #
b11000001 !
#1920
0$
#1930
1$
b1011111001001110 #
0%
0&
b00000000 !
#1931
#1940
0$
#1950
1$
b0110001111100011 #
1&
b01010110 !
#1960
0$
#1970
1$
b10001100010001010110 (
b0010010110000101 #
1%
0&
b00000000 !
#1971
#1980
0$
#1990
1$
b1000101001000010 #
1&
b00101100 !
