testbench.vcd
$date
    Tue Nov 10 01:01:23 2015
$end
$version
    MyHDL 0.9.0
$end
$timescale
    1ns
$end

$scope module testbench $end
$var real 1 ! din $end
$var real 1 " dout $end
$var real 1 # addr $end
$var reg 1 $ clk $end
$var real 1 % state $end
$var reg 1 & r $end
$var reg 1 ' w $end
$scope module cache_inst $end
$var real 1 ! din $end
$var real 1 " dout $end
$var real 1 # addr $end
$var reg 1 $ clk $end
$var real 1 % state $end
$var reg 1 & r $end
$var reg 1 ' w $end
$var real 1 ( mem(0) $end
$var real 1 ) mem(1) $end
$var real 1 * mem(2) $end
$var real 1 + mem(3) $end
$var real 1 , mem(4) $end
$var real 1 - mem(5) $end
$var real 1 . mem(6) $end
$var real 1 / mem(7) $end
$var real 1 0 mem(8) $end
$var real 1 1 mem(9) $end
$var real 1 2 mem(10) $end
$var real 1 3 mem(11) $end
$var real 1 4 mem(12) $end
$var real 1 5 mem(13) $end
$var real 1 6 mem(14) $end
$var real 1 7 mem(15) $end
$var real 1 8 mem(16) $end
$var real 1 9 mem(17) $end
$var real 1 : mem(18) $end
$var real 1 ; mem(19) $end
$var real 1 < mem(20) $end
$var real 1 = mem(21) $end
$var real 1 > mem(22) $end
$var real 1 ? mem(23) $end
$var real 1 @ mem(24) $end
$var real 1 A mem(25) $end
$var real 1 B mem(26) $end
$var real 1 C mem(27) $end
$var real 1 D mem(28) $end
$var real 1 E mem(29) $end
$var real 1 F mem(30) $end
$var real 1 G mem(31) $end
$var real 1 H mem(32) $end
$var real 1 I mem(33) $end
$var real 1 J mem(34) $end
$var real 1 K mem(35) $end
$var real 1 L mem(36) $end
$var real 1 M mem(37) $end
$var real 1 N mem(38) $end
$var real 1 O mem(39) $end
$var real 1 P mem(40) $end
$var real 1 Q mem(41) $end
$var real 1 R mem(42) $end
$var real 1 S mem(43) $end
$var real 1 T mem(44) $end
$var real 1 U mem(45) $end
$var real 1 V mem(46) $end
$var real 1 W mem(47) $end
$var real 1 X mem(48) $end
$var real 1 Y mem(49) $end
$var real 1 Z mem(50) $end
$var real 1 [ mem(51) $end
$var real 1 \ mem(52) $end
$var real 1 ] mem(53) $end
$var real 1 ^ mem(54) $end
$var real 1 _ mem(55) $end
$var real 1 ` mem(56) $end
$var real 1 a mem(57) $end
$var real 1 b mem(58) $end
$var real 1 c mem(59) $end
$var real 1 d mem(60) $end
$var real 1 e mem(61) $end
$var real 1 f mem(62) $end
$var real 1 g mem(63) $end
$var real 1 h mem(64) $end
$var real 1 i mem(65) $end
$var real 1 j mem(66) $end
$var real 1 k mem(67) $end
$var real 1 l mem(68) $end
$var real 1 m mem(69) $end
$var real 1 n mem(70) $end
$var real 1 o mem(71) $end
$var real 1 p mem(72) $end
$var real 1 q mem(73) $end
$var real 1 r mem(74) $end
$var real 1 s mem(75) $end
$var real 1 t mem(76) $end
$var real 1 u mem(77) $end
$var real 1 v mem(78) $end
$var real 1 w mem(79) $end
$var real 1 x mem(80) $end
$var real 1 y mem(81) $end
$var real 1 z mem(82) $end
$var real 1 { mem(83) $end
$var real 1 | mem(84) $end
$var real 1 } mem(85) $end
$var real 1 ~ mem(86) $end
$var real 1 "! mem(87) $end
$var real 1 "" mem(88) $end
$var real 1 "# mem(89) $end
$var real 1 "$ mem(90) $end
$var real 1 "% mem(91) $end
$var real 1 "& mem(92) $end
$var real 1 "' mem(93) $end
$var real 1 "( mem(94) $end
$var real 1 ") mem(95) $end
$var real 1 "* mem(96) $end
$var real 1 "+ mem(97) $end
$var real 1 ", mem(98) $end
$var real 1 "- mem(99) $end
$var real 1 ". mem(100) $end
$var real 1 "/ mem(101) $end
$var real 1 "0 mem(102) $end
$var real 1 "1 mem(103) $end
$var real 1 "2 mem(104) $end
$var real 1 "3 mem(105) $end
$var real 1 "4 mem(106) $end
$var real 1 "5 mem(107) $end
$var real 1 "6 mem(108) $end
$var real 1 "7 mem(109) $end
$var real 1 "8 mem(110) $end
$var real 1 "9 mem(111) $end
$var real 1 ": mem(112) $end
$var real 1 "; mem(113) $end
$var real 1 "< mem(114) $end
$var real 1 "= mem(115) $end
$var real 1 "> mem(116) $end
$var real 1 "? mem(117) $end
$var real 1 "@ mem(118) $end
$var real 1 "A mem(119) $end
$var real 1 "B mem(120) $end
$var real 1 "C mem(121) $end
$var real 1 "D mem(122) $end
$var real 1 "E mem(123) $end
$var real 1 "F mem(124) $end
$var real 1 "G mem(125) $end
$var real 1 "H mem(126) $end
$var real 1 "I mem(127) $end
$var real 1 "J mem(128) $end
$var real 1 "K mem(129) $end
$var real 1 "L mem(130) $end
$var real 1 "M mem(131) $end
$var real 1 "N mem(132) $end
$var real 1 "O mem(133) $end
$var real 1 "P mem(134) $end
$var real 1 "Q mem(135) $end
$var real 1 "R mem(136) $end
$var real 1 "S mem(137) $end
$var real 1 "T mem(138) $end
$var real 1 "U mem(139) $end
$var real 1 "V mem(140) $end
$var real 1 "W mem(141) $end
$var real 1 "X mem(142) $end
$var real 1 "Y mem(143) $end
$var real 1 "Z mem(144) $end
$var real 1 "[ mem(145) $end
$var real 1 "\ mem(146) $end
$var real 1 "] mem(147) $end
$var real 1 "^ mem(148) $end
$var real 1 "_ mem(149) $end
$var real 1 "` mem(150) $end
$var real 1 "a mem(151) $end
$var real 1 "b mem(152) $end
$var real 1 "c mem(153) $end
$var real 1 "d mem(154) $end
$var real 1 "e mem(155) $end
$var real 1 "f mem(156) $end
$var real 1 "g mem(157) $end
$var real 1 "h mem(158) $end
$var real 1 "i mem(159) $end
$var real 1 "j mem(160) $end
$var real 1 "k mem(161) $end
$var real 1 "l mem(162) $end
$var real 1 "m mem(163) $end
$var real 1 "n mem(164) $end
$var real 1 "o mem(165) $end
$var real 1 "p mem(166) $end
$var real 1 "q mem(167) $end
$var real 1 "r mem(168) $end
$var real 1 "s mem(169) $end
$var real 1 "t mem(170) $end
$var real 1 "u mem(171) $end
$var real 1 "v mem(172) $end
$var real 1 "w mem(173) $end
$var real 1 "x mem(174) $end
$var real 1 "y mem(175) $end
$var real 1 "z mem(176) $end
$var real 1 "{ mem(177) $end
$var real 1 "| mem(178) $end
$var real 1 "} mem(179) $end
$var real 1 "~ mem(180) $end
$var real 1 #! mem(181) $end
$var real 1 #" mem(182) $end
$var real 1 ## mem(183) $end
$var real 1 #$ mem(184) $end
$var real 1 #% mem(185) $end
$var real 1 #& mem(186) $end
$var real 1 #' mem(187) $end
$var real 1 #( mem(188) $end
$var real 1 #) mem(189) $end
$var real 1 #* mem(190) $end
$var real 1 #+ mem(191) $end
$var real 1 #, mem(192) $end
$var real 1 #- mem(193) $end
$var real 1 #. mem(194) $end
$var real 1 #/ mem(195) $end
$var real 1 #0 mem(196) $end
$var real 1 #1 mem(197) $end
$var real 1 #2 mem(198) $end
$var real 1 #3 mem(199) $end
$var real 1 #4 mem(200) $end
$var real 1 #5 mem(201) $end
$var real 1 #6 mem(202) $end
$var real 1 #7 mem(203) $end
$var real 1 #8 mem(204) $end
$var real 1 #9 mem(205) $end
$var real 1 #: mem(206) $end
$var real 1 #; mem(207) $end
$var real 1 #< mem(208) $end
$var real 1 #= mem(209) $end
$var real 1 #> mem(210) $end
$var real 1 #? mem(211) $end
$var real 1 #@ mem(212) $end
$var real 1 #A mem(213) $end
$var real 1 #B mem(214) $end
$var real 1 #C mem(215) $end
$var real 1 #D mem(216) $end
$var real 1 #E mem(217) $end
$var real 1 #F mem(218) $end
$var real 1 #G mem(219) $end
$var real 1 #H mem(220) $end
$var real 1 #I mem(221) $end
$var real 1 #J mem(222) $end
$var real 1 #K mem(223) $end
$var real 1 #L mem(224) $end
$var real 1 #M mem(225) $end
$var real 1 #N mem(226) $end
$var real 1 #O mem(227) $end
$var real 1 #P mem(228) $end
$var real 1 #Q mem(229) $end
$var real 1 #R mem(230) $end
$var real 1 #S mem(231) $end
$var real 1 #T mem(232) $end
$var real 1 #U mem(233) $end
$var real 1 #V mem(234) $end
$var real 1 #W mem(235) $end
$var real 1 #X mem(236) $end
$var real 1 #Y mem(237) $end
$var real 1 #Z mem(238) $end
$var real 1 #[ mem(239) $end
$var real 1 #\ mem(240) $end
$var real 1 #] mem(241) $end
$var real 1 #^ mem(242) $end
$var real 1 #_ mem(243) $end
$var real 1 #` mem(244) $end
$var real 1 #a mem(245) $end
$var real 1 #b mem(246) $end
$var real 1 #c mem(247) $end
$var real 1 #d mem(248) $end
$var real 1 #e mem(249) $end
$var real 1 #f mem(250) $end
$var real 1 #g mem(251) $end
$var real 1 #h mem(252) $end
$var real 1 #i mem(253) $end
$var real 1 #j mem(254) $end
$var real 1 #k mem(255) $end
$upscope $end
$upscope $end

$enddefinitions $end
$dumpvars
s0 !
s0 "
s0 #
0$
sWAIT %
0&
0'
s104 (
s166 )
s55 *
s210 +
s250 ,
s195 -
s108 .
s164 /
s101 0
s174 1
s82 2
s224 3
s153 4
s233 5
s168 6
s59 7
s173 8
s202 9
s112 :
s55 ;
s223 <
s96 =
s57 >
s88 ?
s3 @
s1 A
s21 B
s60 C
s181 D
s51 E
s98 F
s71 G
s12 H
s145 I
s185 J
s5 K
s95 L
s128 M
s191 N
s146 O
s254 P
s241 Q
s206 R
s134 S
s247 T
s60 U
s125 V
s80 W
s104 X
s253 Y
s93 Z
s60 [
s0 \
s194 ]
s120 ^
s28 _
s48 `
s202 a
s52 b
s89 c
s84 d
s15 e
s132 f
s149 g
s35 h
s86 i
s69 j
s21 k
s208 l
s122 m
s26 n
s56 o
s199 p
s163 q
s83 r
s155 s
s184 t
s244 u
s51 v
s190 w
s226 x
s44 y
s74 z
s157 {
s1 |
s93 }
s142 ~
s176 "!
s99 ""
s203 "#
s20 "$
s90 "%
s115 "&
s96 "'
s130 "(
s251 ")
s145 "*
s98 "+
s104 ",
s61 "-
s113 ".
s157 "/
s229 "0
s202 "1
s203 "2
s160 "3
s245 "4
s238 "5
s230 "6
s187 "7
s215 "8
s24 "9
s220 ":
s198 ";
s6 "<
s182 "=
s176 ">
s123 "?
s247 "@
s96 "A
s102 "B
s229 "C
s63 "D
s226 "E
s155 "F
s13 "G
s3 "H
s245 "I
s237 "J
s251 "K
s194 "L
s28 "M
s166 "N
s142 "O
s177 "P
s46 "Q
s34 "R
s80 "S
s65 "T
s137 "U
s179 "V
s228 "W
s9 "X
s66 "Y
s227 "Z
s140 "[
s212 "\
s53 "]
s161 "^
s234 "_
s105 "`
s201 "a
s101 "b
s49 "c
s230 "d
s113 "e
s148 "f
s37 "g
s53 "h
s65 "i
s118 "j
s227 "k
s8 "l
s21 "m
s125 "n
s101 "o
s219 "p
s220 "q
s151 "r
s232 "s
s77 "t
s119 "u
s53 "v
s5 "w
s89 "x
s162 "y
s176 "z
s213 "{
s217 "|
s95 "}
s162 "~
s226 #!
s50 #"
s240 ##
s11 #$
s189 #%
s189 #&
s90 #'
s240 #(
s82 #)
s22 #*
s33 #+
s237 #,
s84 #-
s94 #.
s121 #/
s196 #0
s239 #1
s88 #2
s0 #3
s60 #4
s158 #5
s220 #6
s161 #7
s70 #8
s112 #9
s171 #:
s252 #;
s94 #<
s216 #=
s170 #>
s128 #?
s84 #@
s238 #A
s139 #B
s225 #C
s57 #D
s128 #E
s53 #F
s67 #G
s214 #H
s51 #I
s179 #J
s165 #K
s59 #L
s218 #M
s174 #N
s127 #O
s49 #P
s132 #Q
s180 #R
s117 #S
s197 #T
s254 #U
s7 #V
s208 #W
s50 #X
s225 #Y
s108 #Z
s192 #[
s227 #\
s209 #]
s120 #^
s217 #_
s179 #`
s132 #a
s42 #b
s227 #c
s35 #d
s73 #e
s146 #f
s218 #g
s165 #h
s84 #i
s185 #j
s155 #k
$end
#10
1$
1&
1'
s121 #
s57 !
#11
#20
0$
#30
1$
0'
s21 #
s71 !
#31
#40
0$
#50
1$
sREAD %
s96 "
0&
1'
s153 #
s50 !
#51
#60
0$
#70
1$
0'
s61 #
s7 !
sWRITE %
s50 "c
#71
#80
0$
#90
1$
sWAIT %
1&
1'
s22 #
s57 !
#91
#100
0$
#110
1$
0&
0'
s241 #
s125 !
#111
#120
0$
#130
1$
1&
1'
s68 #
s217 !
#131
#140
0$
#150
1$
0&
s218 #
s111 !
#151
#160
0$
#170
1$
sWRITE %
s111 #F
1&
s129 #
s213 !
#171
#180
0$
#190
1$
s216 #
s212 !
sWAIT %
#191
#200
0$
#210
1$
s221 #
s215 !
#211
#220
0$
#230
1$
s100 #
s32 !
#231
#240
0$
#250
1$
s14 #
s114 !
#251
#260
0$
#270
1$
0&
0'
s98 #
s205 !
#271
#280
0$
#290
1$
s207 #
s97 !
#291
#300
0$
#310
1$
1&
s190 #
s31 !
#311
#320
0$
#330
1$
sREAD %
s22 "
0&
1'
s223 #
s102 !
#331
#340
0$
#350
1$
s212 #
s55 !
sWRITE %
s102 #K
#351
#360
0$
#370
1$
s55 #@
s229 #
#371
#380
0$
#390
1$
1&
0'
s169 #
s169 !
s55 #Q
#391
#400
0$
#410
1$
sREAD %
s232 "
0&
1'
s182 #
s88 !
#411
#420
0$
#430
1$
1&
0'
s70 #
s4 !
sWRITE %
s88 #"
#431
#440
0$
#450
1$
sREAD %
s26 "
0&
s227 #
s41 !
#451
#460
0$
#470
1$
s128 #
s144 !
sWAIT %
#471
#480
0$
#490
1$
1&
1'
s179 #
s80 !
#491
#500
0$
#510
1$
s190 #
s253 !
#511
#520
0$
#530
1$
0&
s11 #
s49 !
#531
#540
0$
#550
1$
1&
0'
s55 #
s9 !
sWRITE %
s49 3
#551
#560
0$
#570
1$
sREAD %
s28 "
0&
1'
s217 #
s209 !
#571
#580
0$
#590
1$
1&
s170 #
s112 !
sWRITE %
s209 #E
#591
#600
0$
#610
1$
sWAIT %
0'
s59 #
s62 !
#611
#620
0$
#630
1$
0&
s183 #
s133 !
sREAD %
s89 "
#631
#640
0$
#650
1$
sWAIT %
s113 #
s149 !
#651
#660
0$
#670
1$
1&
1'
s154 #
s44 !
#671
#680
0$
#690
1$
0&
s1 #
s128 !
#691
#700
0$
#710
1$
1&
s172 #
s56 !
sWRITE %
s128 )
#711
#720
0$
#730
1$
sWAIT %
0'
s159 #
s28 !
#731
#740
0$
#750
1$
1'
s143 #
s229 !
sREAD %
s65 "
#751
#760
0$
#770
1$
sWAIT %
0'
s64 #
s6 !
#771
#780
0$
#790
1$
0&
s24 #
s13 !
sREAD %
s35 "
#791
#800
0$
#810
1$
sWAIT %
s182 #
s80 !
#811
#820
0$
#830
1$
1&
1'
s120 #
s78 !
#831
#840
0$
#850
1$
0'
s97 #
s57 !
#851
#860
0$
#870
1$
1'
s2 #
s220 !
sREAD %
s98 "
#871
#880
0$
#890
1$
sWAIT %
s38 #
s142 !
#891
#900
0$
#910
1$
s40 #
s63 !
#911
#920
0$
#930
1$
0&
s79 #
s227 !
#931
#940
0$
#950
1$
s32 #
s94 !
sWRITE %
s227 w
#951
#960
0$
#970
1$
s94 H
s118 #
s113 !
#971
#980
0$
#990
1$
1&
s183 #
s211 !
s113 "@
#991
#1000
0$
#1010
1$
sWAIT %
0'
s143 #
s33 !
#1011
#1020
0$
#1030
1$
s180 #
s28 !
sREAD %
s66 "
#1031
#1040
0$
#1050
1$
s162 "
0&
s129 #
s177 !
#1051
#1060
0$
#1070
1$
1&
s106 #
s115 !
sWAIT %
#1071
#1080
0$
#1090
1$
sREAD %
s245 "
0&
s248 #
s23 !
#1091
#1100
0$
#1110
1$
1&
s42 #
s153 !
sWAIT %
#1111
#1120
0$
#1130
1$
sREAD %
s206 "
0&
s181 #
s27 !
#1131
#1140
0$
#1150
1$
1&
1'
s210 #
s43 !
sWAIT %
#1151
#1160
0$
#1170
1$
0&
0'
s215 #
s229 !
#1171
#1180
0$
#1190
1$
1&
s232 #
s21 !
#1191
#1200
0$
#1210
1$
sREAD %
s197 "
s133 #
s215 !
#1211
#1220
0$
#1230
1$
0&
s107 #
s232 !
s142 "
#1231
#1240
0$
#1250
1$
sWAIT %
1&
s104 #
s41 !
#1251
#1260
0$
#1270
1$
0&
s153 #
s104 !
sREAD %
s203 "
#1271
#1280
0$
#1290
1$
sWAIT %
s177 #
s158 !
#1291
#1300
0$
#1310
1$
s36 #
s181 !
#1311
#1320
0$
#1330
1$
1&
s153 #
s71 !
#1331
#1340
0$
#1350
1$
0&
s186 #
s198 !
sREAD %
s50 "
#1351
#1360
0$
#1370
1$
sWAIT %
1'
s240 #
s15 !
#1371
#1380
0$
#1390
1$
s210 #
s4 !
sWRITE %
s15 #\
#1391
#1400
0$
#1410
1$
s4 #>
0'
s82 #
s253 !
#1411
#1420
0$
#1430
1$
1&
s57 #
s153 !
sWAIT %
#1431
#1440
0$
#1450
1$
sREAD %
s202 "
1'
s153 #
s32 !
#1451
#1460
0$
#1470
1$
s217 #
s98 !
sWAIT %
#1471
#1480
0$
#1490
1$
0&
0'
s62 #
s201 !
#1491
#1500
0$
#1510
1$
1&
1'
s14 #
s117 !
#1511
#1520
0$
#1530
1$
0'
s228 #
s24 !
#1531
#1540
0$
#1550
1$
0&
1'
s240 #
s231 !
sREAD %
s49 "
#1551
#1560
0$
#1570
1$
sWRITE %
s231 #\
0'
s137 #
s99 !
#1571
#1580
0$
#1590
1$
1&
s209 #
s134 !
sWAIT %
#1591
#1600
0$
#1610
1$
sREAD %
s216 "
0&
1'
s244 #
s202 !
#1611
#1620
0$
#1630
1$
1&
s17 #
s47 !
sWRITE %
s202 #`
#1631
#1640
0$
#1650
1$
sWAIT %
0&
0'
s247 #
s132 !
#1651
#1660
0$
#1670
1$
s78 #
s61 !
#1671
#1680
0$
#1690
1$
1&
s165 #
s87 !
#1691
#1700
0$
#1710
1$
0&
s209 #
s60 !
sREAD %
s101 "
#1711
#1720
0$
#1730
1$
sWAIT %
1&
s218 #
s254 !
#1731
#1740
0$
#1750
1$
0&
1'
s72 #
s108 !
sREAD %
s111 "
#1751
#1760
0$
#1770
1$
sWRITE %
s108 p
0'
s157 #
s28 !
#1771
#1780
0$
#1790
1$
1&
s101 #
s48 !
sWAIT %
#1791
#1800
0$
#1810
1$
sREAD %
s157 "
1'
s1 #
s126 !
#1811
#1820
0$
#1830
1$
0&
s113 #
s227 !
sWAIT %
#1831
#1840
0$
#1850
1$
sWRITE %
s227 ";
1&
0'
s205 #
s3 !
#1851
#1860
0$
#1870
1$
1'
s241 #
s36 !
sREAD %
s112 "
#1871
#1880
0$
#1890
1$
sWAIT %
s228 #
s173 !
#1891
#1900
0$
#1910
1$
0&
0'
s216 #
s159 !
#1911
#1920
0$
#1930
1$
1'
s197 #
s49 !
#1931
#1940
0$
#1950
1$
s93 #
s67 !
sWRITE %
s49 #1
#1951
#1960
0$
#1970
1$
s67 "'
0'
s99 #
s245 !
#1971
#1980
0$
#1990
1$
s3 #
s40 !
sWAIT %
