testbench.vcd
$date
    Sun Nov  8 14:48:23 2015
$end
$version
    MyHDL 0.9.0
$end
$timescale
    1ns
$end

$scope module testbench $end
$var real 1 ! state $end
$var reg 1 " r $end
$var reg 1 # w $end
$var reg 1 $ clk $end
$scope module cache_inst $end
$var real 1 ! state $end
$var reg 1 " r $end
$var reg 1 # w $end
$var reg 1 $ clk $end
$upscope $end
$upscope $end

$enddefinitions $end
$dumpvars
sWAIT !
0"
0#
0$
$end
#10
1$
#11
#20
0$
#30
1$
#31
#40
0$
#50
1$
1"
1#
#51
#60
0$
#70
1$
#71
#80
0$
#90
1$
#91
#100
0$
#110
1$
0"
#111
#120
0$
#130
1$
sWRITE !
1"
#131
#140
0$
#150
1$
0"
sWAIT !
#151
#160
0$
#170
1$
sWRITE !
#171
#180
0$
#190
1$
0#
#191
#200
0$
#210
1$
sWAIT !
#211
#220
0$
#230
1$
1"
1#
#231
#240
0$
#250
1$
#251
#260
0$
#270
1$
0"
0#
#271
#280
0$
#290
1$
1#
#291
#300
0$
#310
1$
1"
sWRITE !
#311
#320
0$
#330
1$
sWAIT !
#331
#340
0$
#350
1$
0"
#351
#360
0$
#370
1$
sWRITE !
#371
#380
0$
#390
1$
1"
#391
#400
0$
#410
1$
sWAIT !
0"
0#
#411
#420
0$
#430
1$
#431
#440
0$
#450
1$
#451
#460
0$
#470
1$
1"
#471
#480
0$
#490
1$
sREAD !
1#
#491
#500
0$
#510
1$
0"
sWAIT !
#511
#520
0$
#530
1$
sWRITE !
1"
#531
#540
0$
#550
1$
0"
sWAIT !
#551
#560
0$
#570
1$
sWRITE !
#571
#580
0$
#590
1$
#591
#600
0$
#610
1$
#611
#620
0$
#630
1$
1"
0#
#631
#640
0$
#650
1$
sREAD !
#651
#660
0$
#670
1$
0"
1#
#671
#680
0$
#690
1$
sWRITE !
1"
0#
#691
#700
0$
#710
1$
0"
sREAD !
#711
#720
0$
#730
1$
sWAIT !
1"
#731
#740
0$
#750
1$
0"
1#
sREAD !
#751
#760
0$
#770
1$
sWRITE !
1"
#771
#780
0$
#790
1$
0"
sWAIT !
#791
#800
0$
#810
1$
sWRITE !
1"
#811
#820
0$
#830
1$
0"
sWAIT !
#831
#840
0$
#850
1$
sWRITE !
1"
#851
#860
0$
#870
1$
0"
0#
sWAIT !
#871
#880
0$
#890
1$
#891
#900
0$
#910
1$
#911
#920
0$
#930
1$
#931
#940
0$
#950
1$
1"
#951
#960
0$
#970
1$
sREAD !
0"
1#
#971
#980
0$
#990
1$
1"
0#
sWRITE !
#991
#1000
0$
#1010
1$
sREAD !
1#
#1011
#1020
0$
#1030
1$
0"
0#
sWAIT !
#1031
#1040
0$
#1050
1$
1"
1#
#1051
#1060
0$
#1070
1$
0"
0#
#1071
#1080
0$
#1090
1$
1"
#1091
#1100
0$
#1110
1$
1#
sREAD !
#1111
#1120
0$
#1130
1$
sWAIT !
0"
#1131
#1140
0$
#1150
1$
0#
sWRITE !
#1151
#1160
0$
#1170
1$
sWAIT !
1#
#1171
#1180
0$
#1190
1$
1"
0#
sWRITE !
#1191
#1200
0$
#1210
1$
sREAD !
0"
#1211
#1220
0$
#1230
1$
1"
sWAIT !
#1231
#1240
0$
#1250
1$
sREAD !
0"
1#
#1251
#1260
0$
#1270
1$
1"
0#
sWRITE !
#1271
#1280
0$
#1290
1$
sREAD !
1#
#1291
#1300
0$
#1310
1$
sWAIT !
#1311
#1320
0$
#1330
1$
0#
#1331
#1340
0$
#1350
1$
1#
sREAD !
#1351
#1360
0$
#1370
1$
sWAIT !
0"
0#
#1371
#1380
0$
#1390
1$
1"
#1391
#1400
0$
#1410
1$
sREAD !
0"
#1411
#1420
0$
#1430
1$
1"
1#
sWAIT !
#1431
#1440
0$
#1450
1$
0"
#1451
#1460
0$
#1470
1$
sWRITE !
#1471
#1480
0$
#1490
1$
0#
#1491
#1500
0$
#1510
1$
sWAIT !
#1511
#1520
0$
#1530
1$
1"
1#
#1531
#1540
0$
#1550
1$
0"
#1551
#1560
0$
#1570
1$
sWRITE !
1"
#1571
#1580
0$
#1590
1$
sWAIT !
#1591
#1600
0$
#1610
1$
0"
#1611
#1620
0$
#1630
1$
0#
sWRITE !
#1631
#1640
0$
#1650
1$
sWAIT !
1"
#1651
#1660
0$
#1670
1$
0"
1#
sREAD !
#1671
#1680
0$
#1690
1$
sWRITE !
0#
#1691
#1700
0$
#1710
1$
sWAIT !
#1711
#1720
0$
#1730
1$
1"
#1731
#1740
0$
#1750
1$
sREAD !
#1751
#1760
0$
#1770
1$
#1771
#1780
0$
#1790
1$
#1791
#1800
0$
#1810
1$
1#
#1811
#1820
0$
#1830
1$
0#
sWAIT !
#1831
#1840
0$
#1850
1$
sREAD !
0"
1#
#1851
#1860
0$
#1870
1$
1"
sWRITE !
#1871
#1880
0$
#1890
1$
sWAIT !
#1891
#1900
0$
#1910
1$
0#
#1911
#1920
0$
#1930
1$
sREAD !
#1931
#1940
0$
#1950
1$
1#
#1951
#1960
0$
#1970
1$
sWAIT !
0#
#1971
#1980
0$
#1990
1$
sREAD !
